Para documentacion del API, me base en esta de aqui...
https://github.com/Project-OSRM/osrm-backend/blob/master/docs/http.md                        

http://www.ajamar.com/route/v1/driving/-3.985757,-79.199083;-4.032943,-79.202346?steps=true                        
http://www.ajamar.com/nearest/v1/driving/-3.985757,-79.199083?number=3&bearings=0,20                        
http://www.ajamar.com/table/v1/driving/-3.985757,-79.199083;-4.032943,-79.202346?sources=0;1&destinations=0;1                        
http://www.ajamar.com/match/v1/driving/-3.985757,-79.199083;-4.032943,-79.202346?steps=true                        
http://www.ajamar.com/trip/v1/driving/-3.985757,-79.199083;-4.032943,-79.202346?steps=true                        
alli esta cada uno de las 5 funcionalidades de esa api                        
estoy haciendo un pass through directo con NGinX como proxy para evitar temas de permisos y cortafuegos                        
El API se puede consumir por HTTP (80) o HTTPS (443)
Por la manera en que esta implementado (unas lineas en el NGinX) no se debe usar dentro de la aplicacion ningun URL base que empieza en:
	/route
	/nearest
	/table
	/match
	/trip
Porque de esta forma se esta aislando las llamadas al API y no paginas de la aplicacion dentro del mismo dominio.
